{
    "metadatas": {
        "header": "<?xml version='1.0' encoding='UTF-8' ?>",
        "lom-open": "<lom xmlns='http://www.imsglobal.org/xsd/imsmd_rootv1p2p1' xmlns:xsi='http://www.w3.org/2001/XMLSchema-instance' xsi:schemaLocation='http://www.imsglobal.org/xsd/imsmd_rootv1p2p1 imsmd_rootv1p2p1.xsd'><relation><resource>",
        "identifier": "<identifier>de_pqt.zip</identifier>",
        "lom-close": "</resource></relation></lom>",
        "catalogentry": "<catalogentry> ($) </catalogentry>",
        "catalog": "<catalog> ($) </catalog>",
        "datos": [
            {
                "index": 0,
                "id_meta": "ims_adv_general_identifier",
                "description": "<extension><type>MediumString</type><label>Identificador general</label></extension>",
                "value": "<entry><langstring>($)</langstring></entry>",
                "lom":"general"

            },
            {
                "index": 1,
                "id_meta": "a_5eea24db492c447faaa119b3eecdf27c",
                "description": "<extension><type>LongString</type><label>Subtitulo</label></extension>",
                "value": "<entry><langstring>($)</langstring></entry>",
                "lom":"general"
            }
            ,
            {
                "index": 2,
                "id_meta": "ims_adv_lifecycle_version",
                "description": "<extension><type>ShortString</type><label>version ciclo vida</label></extension>",
                "value": "<entry><langstring>($)</langstring></entry>",
                "lom":"cicloVida"
            }
            ,
            {
                "index": 3,
                "id_meta": "ims_adv_general_catalog",
                "description": "<extension><type>LongString</type><label>Catálogo general</label></extension>",
                "value": "<entry><langstring>($)</langstring></entry>",
                "lom":"general"
            }
            ,
            {
                "index": 4,
                "id_meta": "ims_adv_general_aggregationlevel",
                "description": "<extension><type>ShortString</type><label>Nivel de agrupación general</label></extension>",
                "value": "<entry><langstring>($)</langstring></entry>",
                "lom":"general"
            }

        ]
    },
    "opciones": {
        "ims_adv_general_identifier": [
            {
                "N": "en red",
                "P": "Parcelado",
                "H": "Jerarquico",
                "A": "atomico",
                "M": "Mixto",
                "B": "Bifurcado",
                "L": "Lineal",
                "C": "Recopilacion"
            }
            ],
            "ims_adv_general_aggregationlevel": [
            {
                "1": "1",
                "2": "2",
                "4": "4",
                "3": "3"
            }
            ]

    }
}